{
	"info": {
		"_postman_id": "596bcb79-7fe2-456b-bc8a-21366b62cf3a",
		"name": "Logistic",
		"schema": "https://schema.getpostman.com/json/collection/v2.1.0/collection.json"
	},
	"item": [
		{
			"name": "Create order",
			"request": {
				"method": "POST",
				"header": [
					{
						"key": "Content-Type",
						"value": "application/json"
					},
					{
						"key": "Accept",
						"value": "application/json"
					}
				],
				"body": {
					"mode": "formdata",
					"formdata": [
						{
							"key": "client[name]",
							"value": "Carlos",
							"description": "",
							"type": "text"
						},
						{
							"key": "client[surnames]",
							"value": "Villafranca Verdugo",
							"description": "",
							"type": "text"
						},
						{
							"key": "client[email]",
							"value": "carlosvlafran_12@hotmail.com",
							"description": "",
							"type": "text"
						},
						{
							"key": "client[phone]",
							"value": "+34 789 456 123",
							"description": "",
							"type": "text"
						},
						{
							"key": "address_delivery[address]",
							"value": "C/ Shuther Nº 24",
							"description": "",
							"type": "text"
						},
						{
							"key": "address_delivery[city]",
							"value": "Villa de Almoradiel, La",
							"description": "",
							"type": "text"
						},
						{
							"key": "address_delivery[zip_code]",
							"value": "45840",
							"description": "",
							"type": "text"
						},
						{
							"key": "address_delivery[province]",
							"value": "Toledo",
							"description": "",
							"type": "text"
						},
						{
							"key": "address_delivery[country_code]",
							"value": "ES",
							"description": "",
							"type": "text"
						},
						{
							"key": "order[delivery_date]",
							"value": "2019-04-03",
							"description": "",
							"type": "text"
						},
						{
							"key": "order[start_time_interval]",
							"value": "08:00",
							"description": "",
							"type": "text"
						},
						{
							"key": "order[end_time_interval]",
							"value": "09:30",
							"description": "",
							"type": "text"
						}
					]
				},
				"url": {
					"raw": "http://localhost:8000/api/create-order",
					"protocol": "http",
					"host": [
						"localhost"
					],
					"port": "8000",
					"path": [
						"api",
						"create-order"
					]
				}
			},
			"response": []
		},
		{
			"name": "Get orders driver by date",
			"request": {
				"method": "GET",
				"header": [
					{
						"key": "Accept",
						"value": "application/json"
					}
				],
				"body": {},
				"url": {
					"raw": "http://localhost:8000/api/get-orders-driver/1/1976-08-04",
					"protocol": "http",
					"host": [
						"localhost"
					],
					"port": "8000",
					"path": [
						"api",
						"get-orders-driver",
						"1",
						"1976-08-04"
					]
				}
			},
			"response": []
		}
	]
}